Quant Vax Cards
…
vax_score_tibble <- vax_score_tibble |>
  select(group, dob, age_rounded, desired_vax_score, colonia_status) 
vax_score_tibble

# A tibble: 270 × 5
   group dob        age_rounded desired_vax_score colonia_status
   <chr> <date>           <dbl>             <dbl> <chr>         
 1 A1.1  2018-06-25         5.9                19 Yes           
 2 A1.2  2015-05-29         9                  19 Yes           
 3 A2.1  2016-04-16         8.1                19 Yes           
 4 A4    2021-03-27         3.2                18 Yes           
 5 A5.1  2020-10-21         3.6                18 Yes           
 6 A5.2  2021-11-23         2.5                18 Yes           
 7 A5.3  2023-08-28         0.7                13 Yes           
 8 A6    2022-09-18         1.7                18 Yes           
 9 A7    2019-03-05         5.2                19 Yes           
10 A8.1  2023-01-16         1.3                15 Yes           
# ℹ 260 more rows
…
vaccine_final <- vaccine_final |>
  rowwise() |>
  mutate(yes_count = sum(c_across(hep_b_status:tetanus_dip_status) == "YES"))
print(vaccine_final)

# A tibble: 270 × 28
# Rowwise: 
   colonia_status survey_date group child_gender child_dob  hep_b_status
   <chr>          <date>      <chr> <chr>        <date>     <chr>       
 1 Yes            2024-05-21  A1.1  F            2018-06-25 YES         
 2 Yes            2024-05-21  A1.2  M            2015-05-29 YES         
 3 Yes            2024-05-21  A2.1  F            2016-04-16 YES         
 4 Yes            2024-05-21  A4    M            2021-03-27 YES         
 5 Yes            2024-05-21  A5.1  F            2020-10-21 YES         
 6 Yes            2024-05-21  A5.2  F            2021-11-23 YES         
 7 Yes            2024-05-21  A5.3  M            2023-08-28 YES         
 8 Yes            2024-05-21  A6    F            2022-09-18 YES         
 9 Yes            2024-05-21  A7    M            2019-03-05 YES         
10 Yes            2024-05-22  A8.1  F            2023-01-16 YES         
# ℹ 260 more rows
# ℹ 22 more variables: bcg_status <chr>, polio_vpi1_status <chr>,
#   polio_vpi2_status <chr>, polio_vop1_status <chr>, polio_vop2_status <chr>,
#   polio_vop3_status <chr>, penta1_status <chr>, penta2_status <chr>,
#   penta3_status <chr>, neumo1_status <chr>, neumo2_status <chr>,
#   neumo3_status <chr>, rota1_status <chr>, rota2_status <chr>,
#   srp1_status <chr>, srp2_status <chr>, hep_a_status <chr>, …
vaccine_final <- vaccine_final |>
  rename(dob = child_dob)

actual_vax_score <- vaccine_final |>
  as_tibble() |>
  select(group, dob, yes_count, colonia_status)

joined_vax_cards <- actual_vax_score |>
  left_join(vax_score_tibble, by = join_by(group))

joined_vax_cards <- joined_vax_cards |>
  mutate(complete = if_else(yes_count >= desired_vax_score, TRUE, FALSE))
joined_vax_cards

# A tibble: 270 × 9
   group dob.x      yes_count colonia_status.x dob.y      age_rounded
   <chr> <date>         <int> <chr>            <date>           <dbl>
 1 A1.1  2018-06-25        18 Yes              2018-06-25         5.9
 2 A1.2  2015-05-29        17 Yes              2015-05-29         9  
 3 A2.1  2016-04-16        15 Yes              2016-04-16         8.1
 4 A4    2021-03-27        16 Yes              2021-03-27         3.2
 5 A5.1  2020-10-21        18 Yes              2020-10-21         3.6
 6 A5.2  2021-11-23        16 Yes              2021-11-23         2.5
 7 A5.3  2023-08-28        15 Yes              2023-08-28         0.7
 8 A6    2022-09-18        18 Yes              2022-09-18         1.7
 9 A7    2019-03-05        18 Yes              2019-03-05         5.2
10 A8.1  2023-01-16        15 Yes              2023-01-16         1.3
# ℹ 260 more rows
# ℹ 3 more variables: desired_vax_score <dbl>, colonia_status.y <chr>,
#   complete <lgl>
…
